Chd1R616Q Mouse — Statistical Analysis
…
4.3 Castrated cohort

castrated <- read_weights_and_analyze(
  "castrated_weights_clean.csv",
  sep            = ";",
  output_prefix  = "castrated",
  plot_width     = 9,
  plot_height    = 5,
  crossbar_width = 3,
  point_dodge    = 1.5,
  pos            = position_jitter(width = 0.05, height = 0),
  breaks         = function(x) seq(0, x[2], by = 5)
)

## # A tibble: 24 × 4
##    Sex   Genotype    Timepoint n_missing
##    <fct> <fct>       <fct>         <int>
##  1 F     Chd1+/+     P21               2
##  2 F     Chd1+/+     P28               5
##  3 F     Chd1+/+     P32               2
##  4 F     Chd1+/+     P42               2
##  5 F     Chd1+/+     P46               4
##  6 F     Chd1+/+     P56               4
##  7 F     Chd1+/R616Q P21               1
##  8 F     Chd1+/R616Q P28               2
##  9 F     Chd1+/R616Q P32               2
## 10 F     Chd1+/R616Q P42               2
## # ℹ 14 more rows
…
